module codeberg.org/xelalexv/oqtadrive

go 1.22

require (
	github.com/blevesearch/bleve/v2 v2.2.2
	github.com/bodgit/sevenzip v1.1.1
	github.com/fsnotify/fsnotify v1.5.1
	github.com/gorilla/mux v1.8.0
	github.com/gorilla/websocket v1.5.1
	github.com/jacobsa/go-serial v0.0.0-20180131005756-15cf729a72d4
	github.com/kylelemons/godebug v1.1.0
	github.com/larschri/testable-example-output v0.0.0-20210305201743-a55ee62466a4
	github.com/mdp/qrterminal/v3 v3.0.0
	github.com/philipgreat/go-serial v0.0.0-20210829172215-a2595c455831
	github.com/sirupsen/logrus v1.8.1
	github.com/spf13/cobra v1.2.1
	github.com/spf13/pflag v1.0.5
	github.com/spf13/viper v1.9.0
	github.com/tg123/go-htpasswd v1.2.2
	golang.org/x/mod v0.8.0
	golang.org/x/net v0.17.0
	golang.org/x/text v0.14.0
)

require (
	github.com/GehirnInc/crypt v0.0.0-20200316065508-bb7000b8a962 // indirect
	github.com/RoaringBitmap/roaring v0.9.4 // indirect
	github.com/bits-and-blooms/bitset v1.2.0 // indirect
	github.com/blevesearch/bleve_index_api v1.0.1 // indirect
	github.com/blevesearch/go-porterstemmer v1.0.3 // indirect
	github.com/blevesearch/mmap-go v1.0.3 // indirect
	github.com/blevesearch/scorch_segment_api/v2 v2.1.0 // indirect
	github.com/blevesearch/segment v0.9.0 // indirect
	github.com/blevesearch/snowballstem v0.9.0 // indirect
	github.com/blevesearch/upsidedown_store_api v1.0.1 // indirect
	github.com/blevesearch/vellum v1.0.7 // indirect
	github.com/blevesearch/zapx/v11 v11.3.1 // indirect
	github.com/blevesearch/zapx/v12 v12.3.1 // indirect
	github.com/blevesearch/zapx/v13 v13.3.1 // indirect
	github.com/blevesearch/zapx/v14 v14.3.1 // indirect
	github.com/blevesearch/zapx/v15 v15.3.1 // indirect
	github.com/bodgit/plumbing v1.1.0 // indirect
	github.com/bodgit/windows v1.0.0 // indirect
	github.com/connesc/cipherio v0.2.1 // indirect
	github.com/golang/protobuf v1.5.3 // indirect
	github.com/golang/snappy v0.0.3 // indirect
	github.com/google/go-cmp v0.5.9 // indirect
	github.com/hashicorp/errwrap v1.0.0 // indirect
	github.com/hashicorp/go-multierror v1.1.1 // indirect
	github.com/hashicorp/hcl v1.0.0 // indirect
	github.com/inconshreveable/mousetrap v1.0.0 // indirect
	github.com/kr/pretty v0.3.1 // indirect
	github.com/magiconair/properties v1.8.5 // indirect
	github.com/mitchellh/mapstructure v1.4.2 // indirect
	github.com/mschoch/smat v0.2.0 // indirect
	github.com/pelletier/go-toml v1.9.4 // indirect
	github.com/rogpeppe/go-internal v1.10.0 // indirect
	github.com/spf13/afero v1.6.0 // indirect
	github.com/spf13/cast v1.4.1 // indirect
	github.com/spf13/jwalterweatherman v1.1.0 // indirect
	github.com/steveyen/gtreap v0.1.0 // indirect
	github.com/subosito/gotenv v1.2.0 // indirect
	github.com/ulikunitz/xz v0.5.10 // indirect
	go.etcd.io/bbolt v1.3.5 // indirect
	go4.org v0.0.0-20200411211856-f5505b9728dd // indirect
	golang.org/x/crypto v0.17.0 // indirect
	golang.org/x/sys v0.15.0 // indirect
	google.golang.org/protobuf v1.31.0 // indirect
	gopkg.in/check.v1 v1.0.0-20201130134442-10cb98267c6c // indirect
	gopkg.in/ini.v1 v1.63.2 // indirect
	gopkg.in/yaml.v2 v2.4.0 // indirect
	rsc.io/qr v0.2.0 // indirect
)
